G04 #@! TF.FileFunction,Copper,L2,Bot,Signal*
%FSLAX46Y46*%
G04 Gerber Fmt 4.6, Leading zero omitted, Abs format (unit mm)*
G04 Created by KiCad (PCBNEW 4.0.6) date 09/26/17 07:42:54*
%MOMM*%
%LPD*%
G01*
G04 APERTURE LIST*
%ADD10C,0.100000*%
%ADD11C,4.300000*%
%ADD12C,2.300000*%
%ADD13C,3.000000*%
%ADD14C,1.300000*%
%ADD15C,1.524000*%
%ADD16R,1.700000X1.700000*%
%ADD17O,1.700000X1.700000*%
%ADD18C,0.685800*%
%ADD19C,0.508000*%
%ADD20C,0.254000*%
G04 APERTURE END LIST*
D10*
D11*
X0Y-4000000D03*
D12*
X-13500000Y6000000D03*
X13500000Y6000000D03*
D13*
X-9000000Y15000000D03*
D14*
X-11430000Y2190000D03*
X-11430000Y9810000D03*
X11430000Y2190000D03*
X11430000Y9810000D03*
D15*
X-19050000Y-13970000D03*
X-19050000Y-16510000D03*
X-19050000Y-19050000D03*
D16*
X-26670000Y-16510000D03*
D17*
X-26670000Y-13970000D03*
D16*
X-26670000Y-10160000D03*
D17*
X-26670000Y-7620000D03*
X-26670000Y-5080000D03*
X-26670000Y-2540000D03*
D16*
X-34290000Y1270000D03*
D17*
X-31750000Y1270000D03*
X-29210000Y1270000D03*
X-26670000Y1270000D03*
X-24130000Y1270000D03*
X-21590000Y1270000D03*
X-19050000Y1270000D03*
D16*
X-13970000Y16510000D03*
D17*
X-16510000Y16510000D03*
X-19050000Y16510000D03*
X-21590000Y16510000D03*
X-24130000Y16510000D03*
X-26670000Y16510000D03*
X-29210000Y16510000D03*
X-31750000Y16510000D03*
X-34290000Y16510000D03*
D16*
X4642000Y-27940000D03*
D17*
X2102000Y-27940000D03*
X-438000Y-27940000D03*
X-2978000Y-27940000D03*
X-5518000Y-27940000D03*
X-8058000Y-27940000D03*
D16*
X15240000Y15240000D03*
D17*
X17780000Y15240000D03*
X20320000Y15240000D03*
X22860000Y15240000D03*
D18*
X-16710000Y13130400D03*
D19*
X11151700Y17919200D02*
X13830900Y15240000D01*
X-27800800Y17919200D02*
X11151700Y17919200D01*
X-29210000Y16510000D02*
X-27800800Y17919200D01*
X15240000Y15240000D02*
X13830900Y15240000D01*
X-28146200Y-15033800D02*
X-26670000Y-16510000D01*
X-28146200Y-4016200D02*
X-28146200Y-15033800D01*
X-28079100Y-3949100D02*
X-28146200Y-4016200D01*
X-28079100Y-2540000D02*
X-28079100Y-3949100D01*
X-29003800Y-4016200D02*
X-34290000Y1270000D01*
X-28146200Y-4016200D02*
X-29003800Y-4016200D01*
X-26670000Y-2540000D02*
X-28079100Y-2540000D01*
X-14408000Y-16510000D02*
X-2978000Y-27940000D01*
X-19050000Y-16510000D02*
X-14408000Y-16510000D01*
X-20958700Y3178700D02*
X-34290000Y16510000D01*
X-18929600Y3178700D02*
X-20958700Y3178700D01*
X-17620400Y1869500D02*
X-18929600Y3178700D01*
X-17620400Y-9952700D02*
X-17620400Y1869500D01*
X-20411400Y-12743700D02*
X-17620400Y-9952700D01*
X-20411400Y-17688600D02*
X-20411400Y-12743700D01*
X-19050000Y-19050000D02*
X-20411400Y-17688600D01*
D20*
X-21590000Y-5080000D02*
X-26670000Y-10160000D01*
X-21590000Y1270000D02*
X-21590000Y-5080000D01*
X-25340700Y-3750700D02*
X-26670000Y-5080000D01*
X-25340700Y-1341400D02*
X-25340700Y-3750700D01*
X-26670000Y-12100D02*
X-25340700Y-1341400D01*
X-26670000Y1270000D02*
X-26670000Y-12100D01*
X-24130000Y-5080000D02*
X-26670000Y-7620000D01*
X-24130000Y1270000D02*
X-24130000Y-5080000D01*
X-14574000Y10994400D02*
X-16710000Y13130400D01*
X-11009400Y10994400D02*
X-14574000Y10994400D01*
X-5573900Y5558900D02*
X-11009400Y10994400D01*
X-5573900Y-18982000D02*
X-5573900Y5558900D01*
X2102000Y-26657900D02*
X-5573900Y-18982000D01*
X2102000Y-27940000D02*
X2102000Y-26657900D01*
X-12246400Y16951500D02*
X-12687900Y16510000D01*
X5842500Y16951500D02*
X-12246400Y16951500D01*
X12564100Y10229900D02*
X5842500Y16951500D01*
X12564100Y8738700D02*
X12564100Y10229900D01*
X11893900Y8068500D02*
X12564100Y8738700D01*
X11893900Y4572100D02*
X11893900Y8068500D01*
X12559700Y3906300D02*
X11893900Y4572100D01*
X12559700Y1335600D02*
X12559700Y3906300D01*
X4642000Y-6582100D02*
X12559700Y1335600D01*
X4642000Y-27940000D02*
X4642000Y-6582100D01*
X-13970000Y16510000D02*
X-12687900Y16510000D01*
X-19050000Y-8279400D02*
X-19050000Y1270000D01*
X-21109100Y-10338500D02*
X-19050000Y-8279400D01*
X-21109100Y-18756100D02*
X-21109100Y-10338500D01*
X-10641400Y-29223800D02*
X-21109100Y-18756100D01*
X-1721800Y-29223800D02*
X-10641400Y-29223800D01*
X-438000Y-27940000D02*
X-1721800Y-29223800D01*
D19*
X-17389900Y14849900D02*
X-19050000Y16510000D01*
X-16003900Y14849900D02*
X-17389900Y14849900D01*
X-13815400Y12661400D02*
X-16003900Y14849900D01*
X8578600Y12661400D02*
X-13815400Y12661400D01*
X11430000Y9810000D02*
X8578600Y12661400D01*
X-19116800Y14036800D02*
X-21590000Y16510000D01*
X-16340700Y14036800D02*
X-19116800Y14036800D01*
X-13984500Y11680600D02*
X-16340700Y14036800D01*
X1939400Y11680600D02*
X-13984500Y11680600D01*
X11430000Y2190000D02*
X1939400Y11680600D01*
X-17430000Y9810000D02*
X-11430000Y9810000D01*
X-24130000Y16510000D02*
X-17430000Y9810000D01*
X-12350000Y2190000D02*
X-11430000Y2190000D01*
X-26670000Y16510000D02*
X-12350000Y2190000D01*
M02*
