Reference, Value, Footprint, Datasheet
"J5","DISPLAY","Socket_Strips:Socket_Strip_Straight_1x06_Pitch2.54mm",""
"U1","TSRN-1","RetroJDM_Power:TSRN-1",""
"J1","PWR","Pin_Headers:Pin_Header_Angled_1x02_Pitch2.54mm",""
"J2","ENC","Pin_Headers:Pin_Header_Angled_1x04_Pitch2.54mm",""
"J6","GPS","Socket_Strips:Socket_Strip_Straight_1x04_Pitch2.54mm",""
"M1","X27.168","RetroJDM_Stepper:X27.168_REAR_CONTACTS",""
"D1","1N4002","Diodes_SMD:D_0805",""
"D3","1N4002","Diodes_SMD:D_0805",""
"D5","1N4002","Diodes_SMD:D_0805",""
"D7","1N4002","Diodes_SMD:D_0805",""
"D8","1N4002","Diodes_SMD:D_0805",""
"D6","1N4002","Diodes_SMD:D_0805",""
"D4","1N4002","Diodes_SMD:D_0805",""
"D2","1N4002","Diodes_SMD:D_0805",""
"J4","TEENSY","Socket_Strips:Socket_Strip_Straight_1x09_Pitch2.54mm",""
"J3","TEENSY","Socket_Strips:Socket_Strip_Straight_1x07_Pitch2.54mm",""
"U2","MB85RC256V","Housings_SOIC:SOIC-8_3.9x4.9mm_Pitch1.27mm",""
"C1","10uF","Capacitors_SMD:C_0805_HandSoldering",""
"R2","10K","Resistors_SMD:R_0805_HandSoldering",""
"R1","10K","Resistors_SMD:R_0805_HandSoldering",""
