EESchema Schematic File Version 2
LIBS:power
LIBS:device
LIBS:transistors
LIBS:conn
LIBS:linear
LIBS:regul
LIBS:74xx
LIBS:cmos4000
LIBS:adc-dac
LIBS:memory
LIBS:xilinx
LIBS:microcontrollers
LIBS:dsp
LIBS:microchip
LIBS:analog_switches
LIBS:motorola
LIBS:texas
LIBS:intel
LIBS:audio
LIBS:interface
LIBS:digital-audio
LIBS:philips
LIBS:display
LIBS:cypress
LIBS:siliconi
LIBS:opto
LIBS:atmel
LIBS:contrib
LIBS:valves
LIBS:retrojdm
EELAYER 25 0
EELAYER END
$Descr A4 11693 8268
encoding utf-8
Sheet 1 1
Title ""
Date ""
Rev ""
Comp ""
Comment1 ""
Comment2 ""
Comment3 ""
Comment4 ""
$EndDescr
$Comp
L GND #PWR01
U 1 1 58DF3425
P 1500 5900
F 0 "#PWR01" H 1500 5650 50  0001 C CNN
F 1 "GND" H 1500 5750 50  0000 C CNN
F 2 "" H 1500 5900 50  0001 C CNN
F 3 "" H 1500 5900 50  0001 C CNN
	1    1500 5900
	1    0    0    -1  
$EndComp
Wire Wire Line
	1500 4600 1500 4100
Wire Wire Line
	1700 4100 1700 4600
$Comp
L +5V #PWR02
U 1 1 58DF38E8
P 1500 4100
F 0 "#PWR02" H 1500 3950 50  0001 C CNN
F 1 "+5V" H 1500 4240 50  0000 C CNN
F 2 "" H 1500 4100 50  0001 C CNN
F 3 "" H 1500 4100 50  0001 C CNN
	1    1500 4100
	1    0    0    -1  
$EndComp
$Comp
L +3V3 #PWR03
U 1 1 58DF3904
P 1700 4100
F 0 "#PWR03" H 1700 3950 50  0001 C CNN
F 1 "+3V3" H 1700 4240 50  0000 C CNN
F 2 "" H 1700 4100 50  0001 C CNN
F 3 "" H 1700 4100 50  0001 C CNN
	1    1700 4100
	1    0    0    -1  
$EndComp
NoConn ~ 1600 4600
$Comp
L Conn_01x06 J5
U 1 1 58DF3A18
P 5700 7200
F 0 "J5" H 5700 7500 50  0000 C CNN
F 1 "DISPLAY" H 5700 6800 50  0000 C CNN
F 2 "Socket_Strips:Socket_Strip_Straight_1x06_Pitch2.54mm" H 5700 7200 50  0001 C CNN
F 3 "" H 5700 7200 50  0001 C CNN
	1    5700 7200
	0    1    1    0   
$EndComp
$Comp
L +3V3 #PWR04
U 1 1 58DF3AFC
P 5400 7000
F 0 "#PWR04" H 5400 6850 50  0001 C CNN
F 1 "+3V3" H 5400 7140 50  0000 C CNN
F 2 "" H 5400 7000 50  0001 C CNN
F 3 "" H 5400 7000 50  0001 C CNN
	1    5400 7000
	1    0    0    -1  
$EndComp
$Comp
L GND #PWR05
U 1 1 58DF3B1A
P 5100 6900
F 0 "#PWR05" H 5100 6650 50  0001 C CNN
F 1 "GND" H 5100 6750 50  0000 C CNN
F 2 "" H 5100 6900 50  0001 C CNN
F 3 "" H 5100 6900 50  0001 C CNN
	1    5100 6900
	1    0    0    -1  
$EndComp
NoConn ~ 5500 7000
$Comp
L TSRN-1 U1
U 1 1 58DF3C27
P 2200 1300
F 0 "U1" H 2400 1100 60  0000 C CNN
F 1 "TSRN-1" H 2200 1500 60  0000 C CNN
F 2 "RetroJDM_Power:TSRN-1" H 2200 1300 60  0001 C CNN
F 3 "" H 2200 1300 60  0001 C CNN
	1    2200 1300
	1    0    0    -1  
$EndComp
$Comp
L Conn_01x02 J1
U 1 1 58DF3CB4
P 1400 1700
F 0 "J1" H 1400 1850 50  0000 C CNN
F 1 "PWR" V 1500 1700 50  0000 C CNN
F 2 "Pin_Headers:Pin_Header_Angled_1x02_Pitch2.54mm" H 1400 1700 50  0001 C CNN
F 3 "" H 1400 1700 50  0001 C CNN
	1    1400 1700
	-1   0    0    1   
$EndComp
$Comp
L GND #PWR06
U 1 1 58DF3FAA
P 2200 1800
F 0 "#PWR06" H 2200 1550 50  0001 C CNN
F 1 "GND" H 2200 1650 50  0000 C CNN
F 2 "" H 2200 1800 50  0001 C CNN
F 3 "" H 2200 1800 50  0001 C CNN
	1    2200 1800
	1    0    0    -1  
$EndComp
Wire Wire Line
	2200 1600 2200 1800
Wire Wire Line
	2600 1300 2700 1300
Wire Wire Line
	2700 1300 2700 1200
$Comp
L +5V #PWR07
U 1 1 58DF4013
P 2700 1200
F 0 "#PWR07" H 2700 1050 50  0001 C CNN
F 1 "+5V" H 2700 1340 50  0000 C CNN
F 2 "" H 2700 1200 50  0001 C CNN
F 3 "" H 2700 1200 50  0001 C CNN
	1    2700 1200
	1    0    0    -1  
$EndComp
Wire Wire Line
	1700 1300 1800 1300
Wire Wire Line
	1700 1300 1700 1600
Wire Wire Line
	1600 1700 2200 1700
Connection ~ 2200 1700
Text Label 1700 1300 2    60   ~ 0
+12V
$Comp
L Conn_01x04 J2
U 1 1 58DF458C
P 1400 3000
F 0 "J2" H 1400 3200 50  0000 C CNN
F 1 "ENC" H 1400 2700 50  0000 C CNN
F 2 "Pin_Headers:Pin_Header_Angled_1x04_Pitch2.54mm" H 1400 3000 50  0001 C CNN
F 3 "" H 1400 3000 50  0001 C CNN
	1    1400 3000
	-1   0    0    1   
$EndComp
$Comp
L GND #PWR08
U 1 1 58DF461D
P 1800 2600
F 0 "#PWR08" H 1800 2350 50  0001 C CNN
F 1 "GND" H 1800 2450 50  0000 C CNN
F 2 "" H 1800 2600 50  0001 C CNN
F 3 "" H 1800 2600 50  0001 C CNN
	1    1800 2600
	1    0    0    -1  
$EndComp
$Comp
L Conn_01x04 J6
U 1 1 58DF49DE
P 10400 2400
F 0 "J6" H 10400 2600 50  0000 C CNN
F 1 "GPS" H 10400 2100 50  0000 C CNN
F 2 "Socket_Strips:Socket_Strip_Straight_1x04_Pitch2.54mm" H 10400 2400 50  0001 C CNN
F 3 "" H 10400 2400 50  0001 C CNN
	1    10400 2400
	1    0    0    -1  
$EndComp
$Comp
L GND #PWR09
U 1 1 58DF52BA
P 9700 2400
F 0 "#PWR09" H 9700 2150 50  0001 C CNN
F 1 "GND" H 9700 2250 50  0000 C CNN
F 2 "" H 9700 2400 50  0001 C CNN
F 3 "" H 9700 2400 50  0001 C CNN
	1    9700 2400
	1    0    0    -1  
$EndComp
$Comp
L +3V3 #PWR010
U 1 1 58DF52E0
P 9700 2300
F 0 "#PWR010" H 9700 2150 50  0001 C CNN
F 1 "+3V3" H 9700 2440 50  0000 C CNN
F 2 "" H 9700 2300 50  0001 C CNN
F 3 "" H 9700 2300 50  0001 C CNN
	1    9700 2300
	1    0    0    -1  
$EndComp
$Comp
L +3V3 #PWR011
U 1 1 58DF56C7
P 10300 5000
F 0 "#PWR011" H 10300 4850 50  0001 C CNN
F 1 "+3V3" H 10300 5140 50  0000 C CNN
F 2 "" H 10300 5000 50  0001 C CNN
F 3 "" H 10300 5000 50  0001 C CNN
	1    10300 5000
	1    0    0    -1  
$EndComp
$Comp
L GND #PWR012
U 1 1 58DF56F1
P 10300 5800
F 0 "#PWR012" H 10300 5550 50  0001 C CNN
F 1 "GND" H 10300 5650 50  0000 C CNN
F 2 "" H 10300 5800 50  0001 C CNN
F 3 "" H 10300 5800 50  0001 C CNN
	1    10300 5800
	1    0    0    -1  
$EndComp
Wire Wire Line
	8800 5100 9200 5100
Wire Wire Line
	8800 5200 9200 5200
$Comp
L X27.168 M1
U 1 1 58DF618B
P 5800 3100
F 0 "M1" H 5800 3450 60  0000 C CNN
F 1 "X27.168" H 5800 2750 60  0000 C CNN
F 2 "RetroJDM_Stepper:X27.168_REAR_CONTACTS" H 5800 3100 60  0001 C CNN
F 3 "" H 5800 3100 60  0001 C CNN
	1    5800 3100
	1    0    0    -1  
$EndComp
Wire Wire Line
	4800 3200 5400 3200
Wire Wire Line
	5200 2900 5200 3500
Connection ~ 5200 3200
Wire Wire Line
	4800 3000 5400 3000
Wire Wire Line
	4900 2900 4900 3500
Connection ~ 4900 3000
Wire Wire Line
	6200 3200 6800 3200
Wire Wire Line
	6400 2900 6400 3500
Connection ~ 6400 3200
Wire Wire Line
	6200 3000 6800 3000
Wire Wire Line
	6700 2900 6700 3500
Connection ~ 6700 3000
$Comp
L D D1
U 1 1 58DF734A
P 4900 2750
F 0 "D1" H 4900 2850 50  0000 C CNN
F 1 "1N4002" H 4900 2650 50  0000 C CNN
F 2 "Diodes_SMD:D_SOD-123" H 4900 2750 50  0001 C CNN
F 3 "" H 4900 2750 50  0001 C CNN
	1    4900 2750
	0    1    1    0   
$EndComp
$Comp
L D D3
U 1 1 58DF7417
P 5200 2750
F 0 "D3" H 5200 2850 50  0000 C CNN
F 1 "1N4002" H 5200 2650 50  0000 C CNN
F 2 "Diodes_SMD:D_SOD-123" H 5200 2750 50  0001 C CNN
F 3 "" H 5200 2750 50  0001 C CNN
	1    5200 2750
	0    1    1    0   
$EndComp
$Comp
L D D5
U 1 1 58DF745B
P 6400 2750
F 0 "D5" H 6400 2850 50  0000 C CNN
F 1 "1N4002" H 6400 2650 50  0000 C CNN
F 2 "Diodes_SMD:D_SOD-123" H 6400 2750 50  0001 C CNN
F 3 "" H 6400 2750 50  0001 C CNN
	1    6400 2750
	0    1    1    0   
$EndComp
$Comp
L D D7
U 1 1 58DF74B4
P 6700 2750
F 0 "D7" H 6700 2850 50  0000 C CNN
F 1 "1N4002" H 6700 2650 50  0000 C CNN
F 2 "Diodes_SMD:D_SOD-123" H 6700 2750 50  0001 C CNN
F 3 "" H 6700 2750 50  0001 C CNN
	1    6700 2750
	0    1    1    0   
$EndComp
$Comp
L D D8
U 1 1 58DF74FC
P 6700 3650
F 0 "D8" H 6700 3750 50  0000 C CNN
F 1 "1N4002" H 6700 3550 50  0000 C CNN
F 2 "Diodes_SMD:D_SOD-123" H 6700 3650 50  0001 C CNN
F 3 "" H 6700 3650 50  0001 C CNN
	1    6700 3650
	0    1    1    0   
$EndComp
$Comp
L D D6
U 1 1 58DF755D
P 6400 3650
F 0 "D6" H 6400 3750 50  0000 C CNN
F 1 "1N4002" H 6400 3550 50  0000 C CNN
F 2 "Diodes_SMD:D_SOD-123" H 6400 3650 50  0001 C CNN
F 3 "" H 6400 3650 50  0001 C CNN
	1    6400 3650
	0    1    1    0   
$EndComp
$Comp
L D D4
U 1 1 58DF75B1
P 5200 3650
F 0 "D4" H 5200 3750 50  0000 C CNN
F 1 "1N4002" H 5200 3550 50  0000 C CNN
F 2 "Diodes_SMD:D_SOD-123" H 5200 3650 50  0001 C CNN
F 3 "" H 5200 3650 50  0001 C CNN
	1    5200 3650
	0    1    1    0   
$EndComp
$Comp
L D D2
U 1 1 58DF760E
P 4900 3650
F 0 "D2" H 4900 3750 50  0000 C CNN
F 1 "1N4002" H 4900 3550 50  0000 C CNN
F 2 "Diodes_SMD:D_SOD-123" H 4900 3650 50  0001 C CNN
F 3 "" H 4900 3650 50  0001 C CNN
	1    4900 3650
	0    1    1    0   
$EndComp
Wire Wire Line
	6700 2600 6700 2500
Wire Wire Line
	6400 2600 6400 2500
Wire Wire Line
	5200 2600 5200 2500
Wire Wire Line
	4900 2600 4900 2500
Wire Wire Line
	4900 3800 4900 3900
Wire Wire Line
	5200 3800 5200 3900
Wire Wire Line
	6400 3800 6400 3900
Wire Wire Line
	6700 3800 6700 3900
$Comp
L +3V3 #PWR013
U 1 1 58DF7976
P 6700 2500
F 0 "#PWR013" H 6700 2350 50  0001 C CNN
F 1 "+3V3" H 6700 2640 50  0000 C CNN
F 2 "" H 6700 2500 50  0001 C CNN
F 3 "" H 6700 2500 50  0001 C CNN
	1    6700 2500
	1    0    0    -1  
$EndComp
$Comp
L +3V3 #PWR014
U 1 1 58DF79C4
P 6400 2500
F 0 "#PWR014" H 6400 2350 50  0001 C CNN
F 1 "+3V3" H 6400 2640 50  0000 C CNN
F 2 "" H 6400 2500 50  0001 C CNN
F 3 "" H 6400 2500 50  0001 C CNN
	1    6400 2500
	1    0    0    -1  
$EndComp
$Comp
L +3V3 #PWR015
U 1 1 58DF7A0B
P 5200 2500
F 0 "#PWR015" H 5200 2350 50  0001 C CNN
F 1 "+3V3" H 5200 2640 50  0000 C CNN
F 2 "" H 5200 2500 50  0001 C CNN
F 3 "" H 5200 2500 50  0001 C CNN
	1    5200 2500
	1    0    0    -1  
$EndComp
$Comp
L +3V3 #PWR016
U 1 1 58DF7A52
P 4900 2500
F 0 "#PWR016" H 4900 2350 50  0001 C CNN
F 1 "+3V3" H 4900 2640 50  0000 C CNN
F 2 "" H 4900 2500 50  0001 C CNN
F 3 "" H 4900 2500 50  0001 C CNN
	1    4900 2500
	1    0    0    -1  
$EndComp
$Comp
L GND #PWR017
U 1 1 58DF7A87
P 4900 3900
F 0 "#PWR017" H 4900 3650 50  0001 C CNN
F 1 "GND" H 4900 3750 50  0000 C CNN
F 2 "" H 4900 3900 50  0001 C CNN
F 3 "" H 4900 3900 50  0001 C CNN
	1    4900 3900
	1    0    0    -1  
$EndComp
$Comp
L GND #PWR018
U 1 1 58DF7AD5
P 5200 3900
F 0 "#PWR018" H 5200 3650 50  0001 C CNN
F 1 "GND" H 5200 3750 50  0000 C CNN
F 2 "" H 5200 3900 50  0001 C CNN
F 3 "" H 5200 3900 50  0001 C CNN
	1    5200 3900
	1    0    0    -1  
$EndComp
$Comp
L GND #PWR019
U 1 1 58DF7B1C
P 6400 3900
F 0 "#PWR019" H 6400 3650 50  0001 C CNN
F 1 "GND" H 6400 3750 50  0000 C CNN
F 2 "" H 6400 3900 50  0001 C CNN
F 3 "" H 6400 3900 50  0001 C CNN
	1    6400 3900
	1    0    0    -1  
$EndComp
$Comp
L GND #PWR020
U 1 1 58DF7B63
P 6700 3900
F 0 "#PWR020" H 6700 3650 50  0001 C CNN
F 1 "GND" H 6700 3750 50  0000 C CNN
F 2 "" H 6700 3900 50  0001 C CNN
F 3 "" H 6700 3900 50  0001 C CNN
	1    6700 3900
	1    0    0    -1  
$EndComp
$Comp
L Conn_01x09 J4
U 1 1 58E04A40
P 1900 4800
F 0 "J4" H 1900 5300 50  0000 C CNN
F 1 "TEENSY" V 2000 4800 50  0000 C CNN
F 2 "Socket_Strips:Socket_Strip_Straight_1x09_Pitch2.54mm" H 1900 4800 50  0001 C CNN
F 3 "" H 1900 4800 50  0001 C CNN
	1    1900 4800
	0    1    1    0   
$EndComp
$Comp
L Conn_01x07 J3
U 1 1 58E0615B
P 1800 5300
F 0 "J3" H 1800 5700 50  0000 C CNN
F 1 "TEENSY" V 1900 5300 50  0000 C CNN
F 2 "Socket_Strips:Socket_Strip_Straight_1x07_Pitch2.54mm" H 1800 5300 50  0001 C CNN
F 3 "" H 1800 5300 50  0001 C CNN
	1    1800 5300
	0    -1   -1   0   
$EndComp
Wire Wire Line
	1700 1600 1600 1600
$Comp
L MB85RC256V U2
U 1 1 58E0B6B9
P 9700 5400
F 0 "U2" H 9700 5850 60  0000 C CNN
F 1 "MB85RC256V" H 9700 4950 60  0000 C CNN
F 2 "Housings_SOIC:SOIC-8_3.9x4.9mm_Pitch1.27mm" H 10050 5350 60  0001 C CNN
F 3 "" H 10050 5350 60  0001 C CNN
	1    9700 5400
	1    0    0    -1  
$EndComp
$Comp
L C C1
U 1 1 58E0B742
P 10300 5450
F 0 "C1" H 10325 5550 50  0000 L CNN
F 1 "10uF" H 10325 5350 50  0000 L CNN
F 2 "Capacitors_SMD:C_0805_HandSoldering" H 10338 5300 50  0001 C CNN
F 3 "" H 10300 5450 50  0001 C CNN
	1    10300 5450
	1    0    0    -1  
$EndComp
$Comp
L R R2
U 1 1 58E0B7C9
P 9100 4850
F 0 "R2" V 9180 4850 50  0000 C CNN
F 1 "10K" V 9100 4850 50  0000 C CNN
F 2 "Resistors_SMD:R_0805_HandSoldering" V 9030 4850 50  0001 C CNN
F 3 "" H 9100 4850 50  0001 C CNN
	1    9100 4850
	1    0    0    -1  
$EndComp
$Comp
L R R1
U 1 1 58E0BAF9
P 8900 4850
F 0 "R1" V 8980 4850 50  0000 C CNN
F 1 "10K" V 8900 4850 50  0000 C CNN
F 2 "Resistors_SMD:R_0805_HandSoldering" V 8830 4850 50  0001 C CNN
F 3 "" H 8900 4850 50  0001 C CNN
	1    8900 4850
	1    0    0    -1  
$EndComp
Wire Wire Line
	10200 5100 10300 5100
Wire Wire Line
	10200 5700 10300 5700
Wire Wire Line
	10300 5600 10300 5800
Wire Wire Line
	10300 5000 10300 5300
Connection ~ 10300 5100
Connection ~ 10300 5700
Wire Wire Line
	8900 5000 8900 5100
Wire Wire Line
	8900 4700 8900 4600
Wire Wire Line
	9100 4600 9100 4700
$Comp
L +3V3 #PWR021
U 1 1 58E0CAB4
P 9000 4500
F 0 "#PWR021" H 9000 4350 50  0001 C CNN
F 1 "+3V3" H 9000 4640 50  0000 C CNN
F 2 "" H 9000 4500 50  0001 C CNN
F 3 "" H 9000 4500 50  0001 C CNN
	1    9000 4500
	1    0    0    -1  
$EndComp
NoConn ~ 9200 5300
NoConn ~ 9200 5500
NoConn ~ 9200 5600
NoConn ~ 9200 5700
Connection ~ 8900 5100
Wire Wire Line
	9100 5000 9100 5200
Connection ~ 9100 5200
Wire Wire Line
	8900 4600 9100 4600
Wire Wire Line
	9000 4600 9000 4500
Connection ~ 9000 4600
Wire Wire Line
	1600 2800 1600 2500
Wire Wire Line
	1600 2500 1800 2500
Wire Wire Line
	1800 2500 1800 2600
Text GLabel 1600 2900 2    50   Output ~ 0
ENC_A
Text GLabel 1600 3000 2    50   Output ~ 0
ENC_B
Text GLabel 1600 3100 2    50   Output ~ 0
ENC_BTN
Text GLabel 10200 2600 0    50   Output ~ 0
GPS_TX
Text GLabel 10200 2500 0    50   Input ~ 0
GPS_RX
Wire Wire Line
	10200 2400 9700 2400
Wire Wire Line
	10200 2300 9700 2300
Wire Wire Line
	5600 7000 5600 6700
Wire Wire Line
	5600 6700 5100 6700
Wire Wire Line
	5100 6700 5100 6900
Text GLabel 5700 7000 1    50   Input ~ 0
OLED_RST
Text GLabel 5800 7000 1    50   Input ~ 0
SCL
Text GLabel 5900 7000 1    50   BiDi ~ 0
SDA
Text GLabel 8800 5100 0    50   Input ~ 0
SCL
Text GLabel 8800 5200 0    50   BiDi ~ 0
SDA
Text GLabel 4800 3000 0    50   Input ~ 0
STEP_A1
Text GLabel 4800 3200 0    50   Input ~ 0
STEP_A2
Text GLabel 6800 3000 2    50   Input ~ 0
STEP_B1
Text GLabel 6800 3200 2    50   Input ~ 0
STEP_B2
Text GLabel 1900 4600 1    50   Output ~ 0
STEP_A2
Text GLabel 1800 4600 1    50   Output ~ 0
STEP_A1
Text GLabel 2000 4600 1    50   Output ~ 0
STEP_B1
Text GLabel 2100 4600 1    50   Output ~ 0
STEP_B2
Text GLabel 2200 4600 1    50   Output ~ 0
SCL
Text GLabel 2300 4600 1    50   BiDi ~ 0
SDA
Wire Wire Line
	1500 5500 1500 5900
Text GLabel 1600 5500 3    50   Input ~ 0
GPS_TX
Text GLabel 1700 5500 3    50   Output ~ 0
GPS_RX
Text GLabel 1800 5500 3    50   Input ~ 0
ENC_A
Text GLabel 1900 5500 3    50   Input ~ 0
ENC_B
Text GLabel 2000 5500 3    50   Input ~ 0
ENC_BTN
Text GLabel 2100 5500 3    50   Output ~ 0
OLED_RST
$EndSCHEMATC
